^D:\CODES\CG\IMP\GLFW-3.3\BUILD\TESTS\WINDOWS.DIR\DEBUG\GETOPT.OBJ|D:\CODES\CG\IMP\GLFW-3.3\BUILD\TESTS\WINDOWS.DIR\DEBUG\GLAD_GL.OBJ|D:\CODES\CG\IMP\GLFW-3.3\BUILD\TESTS\WINDOWS.DIR\DEBUG\WINDOWS.OBJ
D:\CODES\CG\IMP\GLFW-3.3\BUILD\TESTS\DEBUG\WINDOWS.ILK
D:\CODES\CG\IMP\GLFW-3.3\BUILD\TESTS\DEBUG\WINDOWS.EXE
D:\CODES\CG\IMP\GLFW-3.3\BUILD\TESTS\DEBUG\WINDOWS.PDB
