^D:\CODES\CG\IMP\GLFW-3.3\DEPS\GLAD_GL.C|D:\CODES\CG\IMP\GLFW-3.3\EXAMPLES\GEARS.C
D:\CODES\CG\IMP\GLFW-3.3\BUILD\EXAMPLES\GEARS.DIR\DEBUG\VC141.PDB
D:\CODES\CG\IMP\GLFW-3.3\BUILD\EXAMPLES\GEARS.DIR\DEBUG\GLAD_GL.OBJ
D:\CODES\CG\IMP\GLFW-3.3\BUILD\EXAMPLES\GEARS.DIR\DEBUG\GEARS.OBJ
^D:\CODES\CG\IMP\GLFW-3.3\EXAMPLES\GEARS.C
D:\CODES\CG\IMP\GLFW-3.3\BUILD\EXAMPLES\GEARS.DIR\DEBUG\VC141.PDB
^D:\CODES\CG\IMP\GLFW-3.3\DEPS\GLAD_GL.C
D:\CODES\CG\IMP\GLFW-3.3\BUILD\EXAMPLES\GEARS.DIR\DEBUG\VC141.PDB
