^D:\CODES\CG\IMP\GLFW-3.3\BUILD\EXAMPLES\GEARS.DIR\DEBUG\GEARS.OBJ|D:\CODES\CG\IMP\GLFW-3.3\BUILD\EXAMPLES\GEARS.DIR\DEBUG\GLAD_GL.OBJ|D:\CODES\CG\IMP\GLFW-3.3\BUILD\EXAMPLES\GEARS.DIR\DEBUG\GLFW.RES
D:\CODES\CG\IMP\GLFW-3.3\BUILD\EXAMPLES\DEBUG\GEARS.ILK
D:\CODES\CG\IMP\GLFW-3.3\BUILD\EXAMPLES\DEBUG\GEARS.EXE
D:\CODES\CG\IMP\GLFW-3.3\BUILD\EXAMPLES\DEBUG\GEARS.PDB
