^D:\CODES\CG\IMP\GLFW-3.3\DEPS\GLAD_GL.C|D:\CODES\CG\IMP\GLFW-3.3\TESTS\OPACITY.C
D:\CODES\CG\IMP\GLFW-3.3\BUILD\TESTS\OPACITY.DIR\DEBUG\VC141.PDB
D:\CODES\CG\IMP\GLFW-3.3\BUILD\TESTS\OPACITY.DIR\DEBUG\GLAD_GL.OBJ
D:\CODES\CG\IMP\GLFW-3.3\BUILD\TESTS\OPACITY.DIR\DEBUG\OPACITY.OBJ
^D:\CODES\CG\IMP\GLFW-3.3\TESTS\OPACITY.C
D:\CODES\CG\IMP\GLFW-3.3\BUILD\TESTS\OPACITY.DIR\DEBUG\VC141.PDB
^D:\CODES\CG\IMP\GLFW-3.3\DEPS\GLAD_GL.C
D:\CODES\CG\IMP\GLFW-3.3\BUILD\TESTS\OPACITY.DIR\DEBUG\VC141.PDB
