^D:\CODES\CG\IMP\GLFW-3.3\BUILD\TESTS\OPACITY.DIR\DEBUG\GLAD_GL.OBJ|D:\CODES\CG\IMP\GLFW-3.3\BUILD\TESTS\OPACITY.DIR\DEBUG\OPACITY.OBJ
D:\CODES\CG\IMP\GLFW-3.3\BUILD\TESTS\DEBUG\OPACITY.ILK
D:\CODES\CG\IMP\GLFW-3.3\BUILD\TESTS\DEBUG\OPACITY.EXE
D:\CODES\CG\IMP\GLFW-3.3\BUILD\TESTS\DEBUG\OPACITY.PDB
