^D:\CODES\CG\IMP\GLFW-3.3\BUILD\TESTS\CURSOR.DIR\DEBUG\CURSOR.OBJ|D:\CODES\CG\IMP\GLFW-3.3\BUILD\TESTS\CURSOR.DIR\DEBUG\GLAD_GL.OBJ
D:\CODES\CG\IMP\GLFW-3.3\BUILD\TESTS\DEBUG\CURSOR.ILK
D:\CODES\CG\IMP\GLFW-3.3\BUILD\TESTS\DEBUG\CURSOR.EXE
D:\CODES\CG\IMP\GLFW-3.3\BUILD\TESTS\DEBUG\CURSOR.PDB
