﻿  Building Custom Rule D:/Codes/CG/imp/glfw-3.3/tests/CMakeLists.txt
  CMake does not need to re-run because D:/Codes/CG/imp/glfw-3.3/build/tests/CMakeFiles/generate.stamp is up-to-date.
  events.c
  getopt.c
  glad_gl.c
  Generating Code...
  events.vcxproj -> D:\Codes\CG\imp\glfw-3.3\build\tests\Debug\events.exe
