^D:\CODES\CG\IMP\GLFW-3.3\BUILD\EXAMPLES\WAVE.DIR\DEBUG\GLAD_GL.OBJ|D:\CODES\CG\IMP\GLFW-3.3\BUILD\EXAMPLES\WAVE.DIR\DEBUG\GLFW.RES|D:\CODES\CG\IMP\GLFW-3.3\BUILD\EXAMPLES\WAVE.DIR\DEBUG\WAVE.OBJ
D:\CODES\CG\IMP\GLFW-3.3\BUILD\EXAMPLES\DEBUG\WAVE.ILK
D:\CODES\CG\IMP\GLFW-3.3\BUILD\EXAMPLES\DEBUG\WAVE.EXE
D:\CODES\CG\IMP\GLFW-3.3\BUILD\EXAMPLES\DEBUG\WAVE.PDB
