^D:\CODES\CG\IMP\GLFW-3.3\TESTS\MSAA.C
/c /I"D:\CODES\CG\IMP\GLFW-3.3\DEPS" /I"D:\CODES\CG\IMP\GLFW-3.3\INCLUDE" /Zi /nologo /W3 /WX- /diagnostics:classic /Od /Ob0 /Oy- /D WIN32 /D _WINDOWS /D _CRT_SECURE_NO_WARNINGS /D "CMAKE_INTDIR=\"Debug\"" /D _MBCS /Gm- /RTC1 /MDd /GS /fp:precise /Zc:wchar_t /Zc:forScope /Zc:inline /Fo"MSAA.DIR\DEBUG\\" /Fd"MSAA.DIR\DEBUG\VC141.PDB" /Gd /TC /analyze- D:\CODES\CG\IMP\GLFW-3.3\TESTS\MSAA.C
^D:\CODES\CG\IMP\GLFW-3.3\DEPS\GETOPT.C
/c /I"D:\CODES\CG\IMP\GLFW-3.3\DEPS" /I"D:\CODES\CG\IMP\GLFW-3.3\INCLUDE" /Zi /nologo /W3 /WX- /diagnostics:classic /Od /Ob0 /Oy- /D WIN32 /D _WINDOWS /D _CRT_SECURE_NO_WARNINGS /D "CMAKE_INTDIR=\"Debug\"" /D _MBCS /Gm- /RTC1 /MDd /GS /fp:precise /Zc:wchar_t /Zc:forScope /Zc:inline /Fo"MSAA.DIR\DEBUG\\" /Fd"MSAA.DIR\DEBUG\VC141.PDB" /Gd /TC /analyze- D:\CODES\CG\IMP\GLFW-3.3\DEPS\GETOPT.C
^D:\CODES\CG\IMP\GLFW-3.3\DEPS\GLAD_GL.C
/c /I"D:\CODES\CG\IMP\GLFW-3.3\DEPS" /I"D:\CODES\CG\IMP\GLFW-3.3\INCLUDE" /Zi /nologo /W3 /WX- /diagnostics:classic /Od /Ob0 /Oy- /D WIN32 /D _WINDOWS /D _CRT_SECURE_NO_WARNINGS /D "CMAKE_INTDIR=\"Debug\"" /D _MBCS /Gm- /RTC1 /MDd /GS /fp:precise /Zc:wchar_t /Zc:forScope /Zc:inline /Fo"MSAA.DIR\DEBUG\\" /Fd"MSAA.DIR\DEBUG\VC141.PDB" /Gd /TC /analyze- D:\CODES\CG\IMP\GLFW-3.3\DEPS\GLAD_GL.C
