^D:\CODES\CG\IMP\GLFW-3.3\BUILD\SRC\GLFW.DIR\DEBUG\CONTEXT.OBJ|D:\CODES\CG\IMP\GLFW-3.3\BUILD\SRC\GLFW.DIR\DEBUG\EGL_CONTEXT.OBJ|D:\CODES\CG\IMP\GLFW-3.3\BUILD\SRC\GLFW.DIR\DEBUG\INIT.OBJ|D:\CODES\CG\IMP\GLFW-3.3\BUILD\SRC\GLFW.DIR\DEBUG\INPUT.OBJ|D:\CODES\CG\IMP\GLFW-3.3\BUILD\SRC\GLFW.DIR\DEBUG\MONITOR.OBJ|D:\CODES\CG\IMP\GLFW-3.3\BUILD\SRC\GLFW.DIR\DEBUG\OSMESA_CONTEXT.OBJ|D:\CODES\CG\IMP\GLFW-3.3\BUILD\SRC\GLFW.DIR\DEBUG\VULKAN.OBJ|D:\CODES\CG\IMP\GLFW-3.3\BUILD\SRC\GLFW.DIR\DEBUG\WGL_CONTEXT.OBJ|D:\CODES\CG\IMP\GLFW-3.3\BUILD\SRC\GLFW.DIR\DEBUG\WIN32_INIT.OBJ|D:\CODES\CG\IMP\GLFW-3.3\BUILD\SRC\GLFW.DIR\DEBUG\WIN32_JOYSTICK.OBJ|D:\CODES\CG\IMP\GLFW-3.3\BUILD\SRC\GLFW.DIR\DEBUG\WIN32_MONITOR.OBJ|D:\CODES\CG\IMP\GLFW-3.3\BUILD\SRC\GLFW.DIR\DEBUG\WIN32_THREAD.OBJ|D:\CODES\CG\IMP\GLFW-3.3\BUILD\SRC\GLFW.DIR\DEBUG\WIN32_TIME.OBJ|D:\CODES\CG\IMP\GLFW-3.3\BUILD\SRC\GLFW.DIR\DEBUG\WIN32_WINDOW.OBJ|D:\CODES\CG\IMP\GLFW-3.3\BUILD\SRC\GLFW.DIR\DEBUG\WINDOW.OBJ
D:\CODES\CG\IMP\GLFW-3.3\BUILD\SRC\GLFW.DIR\DEBUG\CONTEXT.OBJ
C:\WINDOWS\SYSTEM32\TZRES.DLL
D:\CODES\CG\IMP\GLFW-3.3\BUILD\SRC\GLFW.DIR\DEBUG\INIT.OBJ
D:\CODES\CG\IMP\GLFW-3.3\BUILD\SRC\GLFW.DIR\DEBUG\INPUT.OBJ
D:\CODES\CG\IMP\GLFW-3.3\BUILD\SRC\GLFW.DIR\DEBUG\MONITOR.OBJ
D:\CODES\CG\IMP\GLFW-3.3\BUILD\SRC\GLFW.DIR\DEBUG\VULKAN.OBJ
D:\CODES\CG\IMP\GLFW-3.3\BUILD\SRC\GLFW.DIR\DEBUG\WINDOW.OBJ
D:\CODES\CG\IMP\GLFW-3.3\BUILD\SRC\GLFW.DIR\DEBUG\WIN32_INIT.OBJ
D:\CODES\CG\IMP\GLFW-3.3\BUILD\SRC\GLFW.DIR\DEBUG\WIN32_JOYSTICK.OBJ
D:\CODES\CG\IMP\GLFW-3.3\BUILD\SRC\GLFW.DIR\DEBUG\WIN32_MONITOR.OBJ
D:\CODES\CG\IMP\GLFW-3.3\BUILD\SRC\GLFW.DIR\DEBUG\WIN32_TIME.OBJ
D:\CODES\CG\IMP\GLFW-3.3\BUILD\SRC\GLFW.DIR\DEBUG\WIN32_THREAD.OBJ
D:\CODES\CG\IMP\GLFW-3.3\BUILD\SRC\GLFW.DIR\DEBUG\WIN32_WINDOW.OBJ
D:\CODES\CG\IMP\GLFW-3.3\BUILD\SRC\GLFW.DIR\DEBUG\WGL_CONTEXT.OBJ
D:\CODES\CG\IMP\GLFW-3.3\BUILD\SRC\GLFW.DIR\DEBUG\EGL_CONTEXT.OBJ
D:\CODES\CG\IMP\GLFW-3.3\BUILD\SRC\GLFW.DIR\DEBUG\OSMESA_CONTEXT.OBJ
C:\WINDOWS\GLOBALIZATION\SORTING\SORTDEFAULT.NLS
