^D:\CODES\CG\IMP\GLFW-3.3\DEPS\GETOPT.C|D:\CODES\CG\IMP\GLFW-3.3\DEPS\GLAD_GL.C|D:\CODES\CG\IMP\GLFW-3.3\DEPS\TINYCTHREAD.C|D:\CODES\CG\IMP\GLFW-3.3\EXAMPLES\PARTICLES.C
D:\CODES\CG\IMP\GLFW-3.3\BUILD\EXAMPLES\PARTICLES.DIR\DEBUG\VC141.PDB
D:\CODES\CG\IMP\GLFW-3.3\BUILD\EXAMPLES\PARTICLES.DIR\DEBUG\GLAD_GL.OBJ
D:\CODES\CG\IMP\GLFW-3.3\BUILD\EXAMPLES\PARTICLES.DIR\DEBUG\GETOPT.OBJ
D:\CODES\CG\IMP\GLFW-3.3\BUILD\EXAMPLES\PARTICLES.DIR\DEBUG\TINYCTHREAD.OBJ
D:\CODES\CG\IMP\GLFW-3.3\BUILD\EXAMPLES\PARTICLES.DIR\DEBUG\PARTICLES.OBJ
^D:\CODES\CG\IMP\GLFW-3.3\EXAMPLES\PARTICLES.C
D:\CODES\CG\IMP\GLFW-3.3\BUILD\EXAMPLES\PARTICLES.DIR\DEBUG\VC141.PDB
^D:\CODES\CG\IMP\GLFW-3.3\DEPS\TINYCTHREAD.C
D:\CODES\CG\IMP\GLFW-3.3\BUILD\EXAMPLES\PARTICLES.DIR\DEBUG\VC141.PDB
^D:\CODES\CG\IMP\GLFW-3.3\DEPS\GETOPT.C
D:\CODES\CG\IMP\GLFW-3.3\BUILD\EXAMPLES\PARTICLES.DIR\DEBUG\VC141.PDB
^D:\CODES\CG\IMP\GLFW-3.3\DEPS\GLAD_GL.C
D:\CODES\CG\IMP\GLFW-3.3\BUILD\EXAMPLES\PARTICLES.DIR\DEBUG\VC141.PDB
