^D:\CODES\CG\IMP\GLFW-3.3\BUILD\EXAMPLES\HEIGHTMAP.DIR\DEBUG\GLAD_GL.OBJ|D:\CODES\CG\IMP\GLFW-3.3\BUILD\EXAMPLES\HEIGHTMAP.DIR\DEBUG\GLFW.RES|D:\CODES\CG\IMP\GLFW-3.3\BUILD\EXAMPLES\HEIGHTMAP.DIR\DEBUG\HEIGHTMAP.OBJ
D:\CODES\CG\IMP\GLFW-3.3\BUILD\EXAMPLES\DEBUG\HEIGHTMAP.ILK
D:\CODES\CG\IMP\GLFW-3.3\BUILD\EXAMPLES\DEBUG\HEIGHTMAP.EXE
D:\CODES\CG\IMP\GLFW-3.3\BUILD\EXAMPLES\DEBUG\HEIGHTMAP.PDB
