^D:\CODES\CG\IMP\GLFW-3.3\DEPS\GETOPT.C|D:\CODES\CG\IMP\GLFW-3.3\DEPS\GLAD_GL.C|D:\CODES\CG\IMP\GLFW-3.3\TESTS\ICONIFY.C
D:\CODES\CG\IMP\GLFW-3.3\BUILD\TESTS\ICONIFY.DIR\DEBUG\VC141.PDB
D:\CODES\CG\IMP\GLFW-3.3\BUILD\TESTS\ICONIFY.DIR\DEBUG\GLAD_GL.OBJ
D:\CODES\CG\IMP\GLFW-3.3\BUILD\TESTS\ICONIFY.DIR\DEBUG\GETOPT.OBJ
D:\CODES\CG\IMP\GLFW-3.3\BUILD\TESTS\ICONIFY.DIR\DEBUG\ICONIFY.OBJ
^D:\CODES\CG\IMP\GLFW-3.3\TESTS\ICONIFY.C
D:\CODES\CG\IMP\GLFW-3.3\BUILD\TESTS\ICONIFY.DIR\DEBUG\VC141.PDB
^D:\CODES\CG\IMP\GLFW-3.3\DEPS\GETOPT.C
D:\CODES\CG\IMP\GLFW-3.3\BUILD\TESTS\ICONIFY.DIR\DEBUG\VC141.PDB
^D:\CODES\CG\IMP\GLFW-3.3\DEPS\GLAD_GL.C
D:\CODES\CG\IMP\GLFW-3.3\BUILD\TESTS\ICONIFY.DIR\DEBUG\VC141.PDB
