^D:\CODES\CG\IMP\GLFW-3.3\BUILD\TESTS\ICONIFY.DIR\DEBUG\GETOPT.OBJ|D:\CODES\CG\IMP\GLFW-3.3\BUILD\TESTS\ICONIFY.DIR\DEBUG\GLAD_GL.OBJ|D:\CODES\CG\IMP\GLFW-3.3\BUILD\TESTS\ICONIFY.DIR\DEBUG\ICONIFY.OBJ
D:\CODES\CG\IMP\GLFW-3.3\BUILD\TESTS\DEBUG\ICONIFY.ILK
D:\CODES\CG\IMP\GLFW-3.3\BUILD\TESTS\DEBUG\ICONIFY.EXE
D:\CODES\CG\IMP\GLFW-3.3\BUILD\TESTS\DEBUG\ICONIFY.PDB
