^D:\CODES\CG\IMP\GLFW-3.3\BUILD\TESTS\EVENTS.DIR\DEBUG\EVENTS.OBJ|D:\CODES\CG\IMP\GLFW-3.3\BUILD\TESTS\EVENTS.DIR\DEBUG\GETOPT.OBJ|D:\CODES\CG\IMP\GLFW-3.3\BUILD\TESTS\EVENTS.DIR\DEBUG\GLAD_GL.OBJ
D:\CODES\CG\IMP\GLFW-3.3\BUILD\TESTS\DEBUG\EVENTS.ILK
D:\CODES\CG\IMP\GLFW-3.3\BUILD\TESTS\DEBUG\EVENTS.EXE
D:\CODES\CG\IMP\GLFW-3.3\BUILD\TESTS\DEBUG\EVENTS.PDB
